error[E0576]: cannot find associated type `Wrapper` in trait `AsRefDef`
 --> tests/errors/external_trait_without_argument.rs:3:1
  |
3 | #[delegate]
  | ^^^^^^^^^^^ not found in `AsRefDef`
...
8 | #[delegate(derive(for<> AsRef<str> as AsRefDef))]
  | ------------------------------------------------- in this procedural macro expansion
  |
  = note: this error originates in the macro `::enum_delegate::__macros::impl_for` which comes from the expansion of the attribute macro `delegate` (in Nightly builds, run with -Z macro-backtrace for more info)

error[E0782]: trait objects must include the `dyn` keyword
 --> tests/errors/external_trait_without_argument.rs:3:1
  |
3 | / #[delegate]
4 | | pub trait AsRefDef<T: ?Sized> {
  | |____________________________^
...
8 |   #[delegate(derive(for<> AsRef<str> as AsRefDef))]
  |   ------------------------------------------------- in this procedural macro expansion
  |
  = note: this error originates in the macro `AsRefDef` which comes from the expansion of the attribute macro `delegate` (in Nightly builds, run with -Z macro-backtrace for more info)

error[E0191]: the value of the associated type `__delegate_AsRefDef__Bind0` (from trait `__delegate_AsRefDef__Scope`) must be specified
 --> tests/errors/external_trait_without_argument.rs:3:1
  |
3 |   #[delegate]
  |   ^----------
  |   |
  |  _`__delegate_AsRefDef__Bind0` defined here
  | |
4 | | pub trait AsRefDef<T: ?Sized> {
  | |____________________________^
...
8 |   #[delegate(derive(for<> AsRef<str> as AsRefDef))]
  |   ------------------------------------------------- in this procedural macro expansion
  |
  = note: this error originates in the macro `AsRefDef` which comes from the expansion of the attribute macro `delegate` (in Nightly builds, run with -Z macro-backtrace for more info)
help: specify the associated type
  |
3 + #[delegate]
4 ~ pub trait AsRefDef<T: ?Sized<__delegate_AsRefDef__Bind0 = Type>> {
  |

error[E0223]: ambiguous associated type
 --> tests/errors/external_trait_without_argument.rs:4:29
  |
4 | pub trait AsRefDef<T: ?Sized> {
  |                             ^
...
8 | #[delegate(derive(for<> AsRef<str> as AsRefDef))]
  | ------------------------------------------------- in this procedural macro expansion
  |
  = note: this error originates in the macro `AsRefDef` which comes from the expansion of the attribute macro `delegate` (in Nightly builds, run with -Z macro-backtrace for more info)
help: if there were a trait named `Example` with associated type `__delegate_AsRefDef__Bind0` implemented for `(dyn AsRefDef<Name> + 'static)`, you could use the fully-qualified path
  |
4 | pub trait AsRefDef<T: ?Sized<(dyn AsRefDef<Name> + 'static) as Example>::__delegate_AsRefDef__Bind0 {
  |                             ~~~~~~~~~~~~~~~~~~~~~~~~~~~~~~~~~~~~~~~~~~~~~~~~~~~~~~~~~~~~~~~~~~~~~~~
